// Jest Snapshot v1, https://goo.gl/fbAQLP

exports[`Prueba en <GifGrid /> debe de mostrar items cuando se cargan imagenes useFetchGifs 1`] = `
<Fragment>
  <h3
    className="animate__animated animate__bounce"
  >
    naruto
  </h3>
  <div
    className="d-flex flex-wrap justify-content-around animate__animated animate__fadeIn"
  >
    <GifGridItem
      id="ABC"
      key="ABC"
      title="Cualquier cosa"
      url="https://url.png"
    />
    <GifGridItem
      id="123"
      key="123"
      title="Cualquier cosa"
      url="https://url.png"
    />
  </div>
</Fragment>
`;

exports[`Prueba en <GifGrid /> debe mostrarse correctamente 1`] = `
<Fragment>
  <h3
    className="animate__animated animate__bounce"
  >
    naruto
  </h3>
  <p
    className="animate__animated animate__flash"
  >
    Loading...
  </p>
  <div
    className="d-flex flex-wrap justify-content-around animate__animated animate__fadeIn"
  />
</Fragment>
`;
